%TF.GenerationSoftware,KiCad,Pcbnew,7.0.1*%
%TF.CreationDate,2023-03-30T19:39:20+03:00*%
%TF.ProjectId,board,626f6172-642e-46b6-9963-61645f706362,rev?*%
%TF.SameCoordinates,PX8b3c880PY758a550*%
%TF.FileFunction,Copper,L2,Bot*%
%TF.FilePolarity,Positive*%
%FSLAX46Y46*%
G04 Gerber Fmt 4.6, Leading zero omitted, Abs format (unit mm)*
G04 Created by KiCad (PCBNEW 7.0.1) date 2023-03-30 19:39:20*
%MOMM*%
%LPD*%
G01*
G04 APERTURE LIST*
%TA.AperFunction,ComponentPad*%
%ADD10R,1.800000X1.800000*%
%TD*%
%TA.AperFunction,ComponentPad*%
%ADD11O,1.800000X1.800000*%
%TD*%
%TA.AperFunction,ComponentPad*%
%ADD12R,1.700000X1.700000*%
%TD*%
%TA.AperFunction,ComponentPad*%
%ADD13O,1.700000X1.700000*%
%TD*%
%TA.AperFunction,ComponentPad*%
%ADD14R,1.600000X1.600000*%
%TD*%
%TA.AperFunction,ComponentPad*%
%ADD15O,1.600000X1.600000*%
%TD*%
%TA.AperFunction,ComponentPad*%
%ADD16C,1.600000*%
%TD*%
%TA.AperFunction,ComponentPad*%
%ADD17R,1.500000X1.500000*%
%TD*%
%TA.AperFunction,ComponentPad*%
%ADD18C,1.500000*%
%TD*%
%TA.AperFunction,SMDPad,CuDef*%
%ADD19R,2.000000X1.500000*%
%TD*%
%TA.AperFunction,SMDPad,CuDef*%
%ADD20R,2.000000X3.800000*%
%TD*%
%TA.AperFunction,Conductor*%
%ADD21C,1.000000*%
%TD*%
G04 APERTURE END LIST*
D10*
%TO.P,D1,1,K*%
%TO.N,Net-(AMS1117-5.0-Pad3)*%
X20100000Y38100000D03*
D11*
%TO.P,D1,2,A*%
%TO.N,+5V*%
X20100000Y30480000D03*
%TD*%
D12*
%TO.P,J3,1,Pin_1*%
%TO.N,+5V*%
X32800000Y15240000D03*
D13*
%TO.P,J3,2,Pin_2*%
%TO.N,Earth*%
X32800000Y12700000D03*
%TD*%
D12*
%TO.P,J1,1,Pin_1*%
%TO.N,Earth*%
X8685000Y66065000D03*
D13*
%TO.P,J1,2,Pin_2*%
%TO.N,Net-(AMS1117-5.0-Pad2)*%
X11225000Y66065000D03*
%TO.P,J1,3,Pin_3*%
%TO.N,unconnected-(J1-Pad3)*%
X13765000Y66065000D03*
%TO.P,J1,4,Pin_4*%
%TO.N,unconnected-(J1-Pad4)*%
X16305000Y66065000D03*
%TO.P,J1,5,Pin_5*%
%TO.N,unconnected-(J1-Pad5)*%
X18845000Y66065000D03*
%TO.P,J1,6,Pin_6*%
%TO.N,unconnected-(J1-Pad6)*%
X21385000Y66065000D03*
%TO.P,J1,7,Pin_7*%
%TO.N,Net-(ArduinoNano1-Pad23)*%
X23925000Y66065000D03*
%TO.P,J1,8,Pin_8*%
%TO.N,Net-(ArduinoNano1-Pad24)*%
X26465000Y66065000D03*
%TD*%
D14*
%TO.P,ArduinoNano1,1,TX1*%
%TO.N,unconnected-(ArduinoNano1-Pad1)*%
X9950000Y52070000D03*
D15*
%TO.P,ArduinoNano1,2,RX1*%
%TO.N,unconnected-(ArduinoNano1-Pad2)*%
X9950000Y49530000D03*
%TO.P,ArduinoNano1,3,~{RESET}*%
%TO.N,unconnected-(ArduinoNano1-Pad3)*%
X9950000Y46990000D03*
%TO.P,ArduinoNano1,4,GND*%
%TO.N,Earth*%
X9950000Y44450000D03*
%TO.P,ArduinoNano1,5,D2*%
%TO.N,Net-(ArduinoNano1-Pad5)*%
X9950000Y41910000D03*
%TO.P,ArduinoNano1,6,D3*%
%TO.N,unconnected-(ArduinoNano1-Pad6)*%
X9950000Y39370000D03*
%TO.P,ArduinoNano1,7,D4*%
%TO.N,unconnected-(ArduinoNano1-Pad7)*%
X9950000Y36830000D03*
%TO.P,ArduinoNano1,8,D5*%
%TO.N,unconnected-(ArduinoNano1-Pad8)*%
X9950000Y34290000D03*
%TO.P,ArduinoNano1,9,D6*%
%TO.N,unconnected-(ArduinoNano1-Pad9)*%
X9950000Y31750000D03*
%TO.P,ArduinoNano1,10,D7*%
%TO.N,unconnected-(ArduinoNano1-Pad10)*%
X9950000Y29210000D03*
%TO.P,ArduinoNano1,11,D8*%
%TO.N,unconnected-(ArduinoNano1-Pad11)*%
X9950000Y26670000D03*
%TO.P,ArduinoNano1,12,D9*%
%TO.N,unconnected-(ArduinoNano1-Pad12)*%
X9950000Y24130000D03*
%TO.P,ArduinoNano1,13,D10*%
%TO.N,unconnected-(ArduinoNano1-Pad13)*%
X9950000Y21590000D03*
%TO.P,ArduinoNano1,14,MOSI*%
%TO.N,unconnected-(ArduinoNano1-Pad14)*%
X9950000Y19050000D03*
%TO.P,ArduinoNano1,15,MISO*%
%TO.N,unconnected-(ArduinoNano1-Pad15)*%
X9950000Y16510000D03*
%TO.P,ArduinoNano1,16,SCK*%
%TO.N,unconnected-(ArduinoNano1-Pad16)*%
X25190000Y16510000D03*
%TO.P,ArduinoNano1,17,3V3*%
%TO.N,unconnected-(ArduinoNano1-Pad17)*%
X25190000Y19050000D03*
%TO.P,ArduinoNano1,18,AREF*%
%TO.N,unconnected-(ArduinoNano1-Pad18)*%
X25190000Y21590000D03*
%TO.P,ArduinoNano1,19,A0*%
%TO.N,unconnected-(ArduinoNano1-Pad19)*%
X25190000Y24130000D03*
%TO.P,ArduinoNano1,20,A1*%
%TO.N,unconnected-(ArduinoNano1-Pad20)*%
X25190000Y26670000D03*
%TO.P,ArduinoNano1,21,A2*%
%TO.N,unconnected-(ArduinoNano1-Pad21)*%
X25190000Y29210000D03*
%TO.P,ArduinoNano1,22,A3*%
%TO.N,unconnected-(ArduinoNano1-Pad22)*%
X25190000Y31750000D03*
%TO.P,ArduinoNano1,23,SDA/A4*%
%TO.N,Net-(ArduinoNano1-Pad23)*%
X25190000Y34290000D03*
%TO.P,ArduinoNano1,24,SCL/A5*%
%TO.N,Net-(ArduinoNano1-Pad24)*%
X25190000Y36830000D03*
%TO.P,ArduinoNano1,25,A6*%
%TO.N,unconnected-(ArduinoNano1-Pad25)*%
X25190000Y39370000D03*
%TO.P,ArduinoNano1,26,A7*%
%TO.N,unconnected-(ArduinoNano1-Pad26)*%
X25190000Y41910000D03*
%TO.P,ArduinoNano1,27,+5V*%
%TO.N,unconnected-(ArduinoNano1-Pad27)*%
X25190000Y44450000D03*
%TO.P,ArduinoNano1,28,~{RESET}*%
%TO.N,unconnected-(ArduinoNano1-Pad28)*%
X25190000Y46990000D03*
%TO.P,ArduinoNano1,29,GND*%
%TO.N,Earth*%
X25190000Y49530000D03*
%TO.P,ArduinoNano1,30,VIN*%
%TO.N,Net-(AMS1117-5.0-Pad2)*%
X25190000Y52070000D03*
%TD*%
D14*
%TO.P,C1,1*%
%TO.N,Net-(AMS1117-5.0-Pad3)*%
X15020000Y22860000D03*
D16*
%TO.P,C1,2*%
%TO.N,Earth*%
X17520000Y22860000D03*
%TD*%
D12*
%TO.P,J2,1,Pin_1*%
%TO.N,Net-(ArduinoNano1-Pad23)*%
X4860000Y5080000D03*
D13*
%TO.P,J2,2,Pin_2*%
%TO.N,Net-(ArduinoNano1-Pad24)*%
X7400000Y5080000D03*
%TO.P,J2,3,Pin_3*%
%TO.N,Earth*%
X9940000Y5080000D03*
%TO.P,J2,4,Pin_4*%
%TO.N,Net-(AMS1117-5.0-Pad2)*%
X12480000Y5080000D03*
%TD*%
D17*
%TO.P,DHT11,1,VCC*%
%TO.N,Net-(AMS1117-5.0-Pad2)*%
X24007500Y5177500D03*
D18*
%TO.P,DHT11,2,IO*%
%TO.N,Net-(ArduinoNano1-Pad5)*%
X26547500Y5177500D03*
%TO.P,DHT11,3,NC*%
%TO.N,unconnected-(DHT11-Pad3)*%
X29087500Y5177500D03*
%TO.P,DHT11,4,GND*%
%TO.N,Earth*%
X31627500Y5177500D03*
%TD*%
D19*
%TO.P,AMS1117-5.0,1,GND*%
%TO.N,Earth*%
X20710000Y50800000D03*
%TO.P,AMS1117-5.0,2,VO*%
%TO.N,Net-(AMS1117-5.0-Pad2)*%
X20710000Y48500000D03*
D20*
X14410000Y48500000D03*
D19*
%TO.P,AMS1117-5.0,3,VI*%
%TO.N,Net-(AMS1117-5.0-Pad3)*%
X20710000Y46200000D03*
%TD*%
D21*
%TO.N,Net-(AMS1117-5.0-Pad2)*%
X18545000Y58745000D02*
X18870000Y58420000D01*
X11225000Y66065000D02*
X11225000Y67267081D01*
X28600000Y53800000D02*
X28600000Y55000000D01*
X6130000Y66610000D02*
X6130000Y11430000D01*
X14410000Y54610000D02*
X18545000Y58745000D01*
X9912081Y68580000D02*
X8100000Y68580000D01*
X25180000Y58420000D02*
X28600000Y55000000D01*
X18870000Y58420000D02*
X25180000Y58420000D01*
X11225000Y67267081D02*
X9912081Y68580000D01*
X26870000Y52070000D02*
X28600000Y53800000D01*
X14410000Y48500000D02*
X14410000Y54610000D01*
X24007500Y5177500D02*
X23910000Y5080000D01*
X23910000Y5080000D02*
X12480000Y5080000D01*
X6130000Y11430000D02*
X12480000Y5080000D01*
X11225000Y66065000D02*
X18545000Y58745000D01*
X8100000Y68580000D02*
X6130000Y66610000D01*
X25190000Y52070000D02*
X26870000Y52070000D01*
%TO.N,Net-(AMS1117-5.0-Pad3)*%
X20100000Y38100000D02*
X15020000Y33020000D01*
X20100000Y45590000D02*
X20710000Y46200000D01*
X15020000Y33020000D02*
X15020000Y22860000D01*
X20100000Y38100000D02*
X20100000Y45590000D01*
%TO.N,Net-(ArduinoNano1-Pad5)*%
X26547500Y5177500D02*
X26547500Y5260000D01*
X12480000Y17120000D02*
X12480000Y40642500D01*
X24187500Y7620000D02*
X21980000Y7620000D01*
X21980000Y7620000D02*
X12480000Y17120000D01*
X11212500Y41910000D02*
X9950000Y41910000D01*
X26547500Y5260000D02*
X24187500Y7620000D01*
X12480000Y40642500D02*
X11212500Y41910000D01*
%TO.N,Net-(ArduinoNano1-Pad23)*%
X3590000Y66990000D02*
X7200000Y70600000D01*
X23925000Y64755000D02*
X23925000Y66065000D01*
X32400000Y56280000D02*
X23925000Y64755000D01*
X7200000Y70600000D02*
X19390000Y70600000D01*
X32400000Y41500000D02*
X32400000Y56280000D01*
X25190000Y34290000D02*
X32400000Y41500000D01*
X19390000Y70600000D02*
X23925000Y66065000D01*
X4860000Y5080000D02*
X3590000Y6350000D01*
X3590000Y6350000D02*
X3590000Y66990000D01*
%TO.N,Net-(ArduinoNano1-Pad24)*%
X22640000Y15240000D02*
X23910000Y13970000D01*
X6340000Y72600000D02*
X1050000Y67310000D01*
X19930000Y72600000D02*
X6340000Y72600000D01*
X22640000Y34280000D02*
X22640000Y15240000D01*
X23910000Y13970000D02*
X26450000Y13970000D01*
X25190000Y36830000D02*
X22640000Y34280000D01*
X1050000Y2540000D02*
X2320000Y1270000D01*
X34600000Y57930000D02*
X26465000Y66065000D01*
X4860000Y1270000D02*
X7400000Y3810000D01*
X1050000Y67310000D02*
X1050000Y2540000D01*
X26465000Y66065000D02*
X19930000Y72600000D01*
X2320000Y1270000D02*
X4860000Y1270000D01*
X34600000Y22120000D02*
X34600000Y57930000D01*
X26450000Y13970000D02*
X34600000Y22120000D01*
X7400000Y3810000D02*
X7400000Y5080000D01*
%TO.N,+5V*%
X20100000Y13970000D02*
X20100000Y30480000D01*
X32800000Y15240000D02*
X31530000Y15240000D01*
X31530000Y15240000D02*
X27720000Y11430000D01*
X22640000Y11430000D02*
X20100000Y13970000D01*
X27720000Y11430000D02*
X22640000Y11430000D01*
%TD*%
%TA.AperFunction,Conductor*%
%TO.N,Earth*%
G36*
X8876000Y66302119D02*
G01*
X8922119Y66256000D01*
X8939000Y66193000D01*
X8939000Y64707000D01*
X9583589Y64707000D01*
X9644093Y64713506D01*
X9780962Y64764555D01*
X9847337Y64814243D01*
X9900404Y64837361D01*
X9958208Y64834312D01*
X10008546Y64805743D01*
X10130521Y64692567D01*
X10130523Y64692566D01*
X10130525Y64692564D01*
X10230590Y64624341D01*
X10347296Y64544772D01*
X10404324Y64517309D01*
X10583676Y64430937D01*
X10655637Y64408741D01*
X10834385Y64353604D01*
X10936341Y64338237D01*
X10974341Y64326125D01*
X11006653Y64302741D01*
X16475299Y58834094D01*
X16507910Y58777612D01*
X16507910Y58712390D01*
X16475298Y58655906D01*
X13454084Y55634692D01*
X13448237Y55629205D01*
X13395246Y55582566D01*
X13330519Y55502405D01*
X13328819Y55500345D01*
X13262444Y55421620D01*
X13259613Y55416795D01*
X13248985Y55401426D01*
X13245477Y55397082D01*
X13195269Y55307206D01*
X13193941Y55304888D01*
X13141786Y55216011D01*
X13139814Y55210783D01*
X13131933Y55193829D01*
X13129209Y55188954D01*
X13094883Y55091803D01*
X13093982Y55089336D01*
X13071528Y55029834D01*
X13057611Y54992954D01*
X13056550Y54987470D01*
X13051652Y54969447D01*
X13049788Y54964171D01*
X13032379Y54862645D01*
X13031900Y54860016D01*
X13012343Y54758896D01*
X13012225Y54753307D01*
X13010442Y54734698D01*
X13009500Y54729203D01*
X13009500Y54626244D01*
X13009472Y54623570D01*
X13007285Y54520550D01*
X13008112Y54515027D01*
X13009500Y54496377D01*
X13009500Y51283803D01*
X12990932Y51217967D01*
X12940701Y51171535D01*
X12916849Y51159383D01*
X12769743Y51040257D01*
X12650615Y50893149D01*
X12564681Y50724491D01*
X12564680Y50724489D01*
X12564680Y50724488D01*
X12555441Y50690008D01*
X12521467Y50563211D01*
X12515688Y50541645D01*
X12512825Y50505260D01*
X12509500Y50463016D01*
X12509500Y46536985D01*
X12515688Y46458355D01*
X12564681Y46275510D01*
X12650615Y46106852D01*
X12713342Y46029392D01*
X12769743Y45959743D01*
X12843296Y45900181D01*
X12916851Y45840616D01*
X13031473Y45782215D01*
X13085512Y45754680D01*
X13268355Y45705688D01*
X13346979Y45699500D01*
X15473020Y45699501D01*
X15551645Y45705688D01*
X15734488Y45754680D01*
X15847705Y45812367D01*
X15903148Y45840616D01*
X15917138Y45851946D01*
X16050257Y45959743D01*
X16169383Y46106851D01*
X16255320Y46275512D01*
X16304312Y46458355D01*
X16310500Y46536979D01*
X16310499Y50463020D01*
X16304312Y50541645D01*
X16255320Y50724488D01*
X16216583Y50800514D01*
X16169384Y50893149D01*
X16098826Y50980279D01*
X16050257Y51040257D01*
X16033286Y51054000D01*
X19202000Y51054000D01*
X20456000Y51054000D01*
X20456000Y52058000D01*
X20964000Y52058000D01*
X20964000Y51054000D01*
X22218000Y51054000D01*
X22218000Y51598589D01*
X22211494Y51659094D01*
X22160445Y51795963D01*
X22072904Y51912905D01*
X21955962Y52000446D01*
X21819093Y52051495D01*
X21758589Y52058000D01*
X20964000Y52058000D01*
X20456000Y52058000D01*
X19661411Y52058000D01*
X19600906Y52051495D01*
X19464037Y52000446D01*
X19347095Y51912905D01*
X19259554Y51795963D01*
X19208505Y51659094D01*
X19202000Y51598589D01*
X19202000Y51054000D01*
X16033286Y51054000D01*
X15964883Y51109392D01*
X15903150Y51159383D01*
X15879299Y51171535D01*
X15829068Y51217967D01*
X15810500Y51283803D01*
X15810500Y53977704D01*
X15820091Y54025922D01*
X15847405Y54066799D01*
X18763201Y56982595D01*
X18804078Y57009909D01*
X18852296Y57019500D01*
X18853776Y57019500D01*
X18856450Y57019472D01*
X18857778Y57019444D01*
X18959447Y57017285D01*
X18963497Y57017892D01*
X18964973Y57018112D01*
X18983623Y57019500D01*
X24547704Y57019500D01*
X24595922Y57009909D01*
X24636799Y56982595D01*
X27130298Y54489095D01*
X27162910Y54432611D01*
X27162910Y54367389D01*
X27130299Y54310906D01*
X26326796Y53507403D01*
X26285922Y53480091D01*
X26237704Y53470500D01*
X26193419Y53470500D01*
X26156280Y53476098D01*
X26122441Y53492394D01*
X26042634Y53546805D01*
X25813004Y53657390D01*
X25569461Y53732512D01*
X25569458Y53732513D01*
X25317435Y53770500D01*
X25062565Y53770500D01*
X24810542Y53732513D01*
X24810539Y53732513D01*
X24810538Y53732512D01*
X24566995Y53657390D01*
X24337365Y53546805D01*
X24126787Y53403236D01*
X24126781Y53403232D01*
X24126783Y53403232D01*
X23939950Y53229877D01*
X23840481Y53105147D01*
X23781039Y53030609D01*
X23653607Y52809889D01*
X23641152Y52778155D01*
X23560492Y52572637D01*
X23503778Y52324157D01*
X23484732Y52070000D01*
X23503778Y51815843D01*
X23560492Y51567363D01*
X23653607Y51330112D01*
X23781041Y51109388D01*
X23939950Y50910123D01*
X24126783Y50736768D01*
X24203220Y50684654D01*
X24250981Y50652091D01*
X24288527Y50612002D01*
X24305452Y50559749D01*
X24298537Y50505260D01*
X24269098Y50458890D01*
X24184187Y50373979D01*
X24052912Y50186499D01*
X23956186Y49979071D01*
X23903917Y49784000D01*
X26476082Y49784000D01*
X26423813Y49979071D01*
X26327087Y50186499D01*
X26195810Y50373982D01*
X26115387Y50454405D01*
X26084649Y50504564D01*
X26080033Y50563211D01*
X26102546Y50617561D01*
X26147279Y50655767D01*
X26204482Y50669500D01*
X26821371Y50669500D01*
X26829388Y50669245D01*
X26833583Y50668978D01*
X26899834Y50664753D01*
X27002315Y50675672D01*
X27004871Y50675917D01*
X27107541Y50684654D01*
X27112936Y50686060D01*
X27131345Y50689418D01*
X27136893Y50690008D01*
X27236032Y50718082D01*
X27238546Y50718766D01*
X27338249Y50744725D01*
X27343330Y50747023D01*
X27360893Y50753439D01*
X27366273Y50754962D01*
X27459273Y50799403D01*
X27461628Y50800498D01*
X27555486Y50842923D01*
X27560102Y50846044D01*
X27576332Y50855339D01*
X27581378Y50857749D01*
X27665566Y50917294D01*
X27667611Y50918707D01*
X27753003Y50976421D01*
X27757033Y50980285D01*
X27771463Y50992191D01*
X27776016Y50995410D01*
X27848892Y51068288D01*
X27850709Y51070066D01*
X27925118Y51141379D01*
X27928442Y51145875D01*
X27940645Y51160041D01*
X29555935Y52775331D01*
X29561736Y52780775D01*
X29614755Y52827436D01*
X29679488Y52907608D01*
X29681121Y52909587D01*
X29747554Y52988379D01*
X29750377Y52993192D01*
X29761017Y53008580D01*
X29764523Y53012920D01*
X29814759Y53102850D01*
X29816054Y53105111D01*
X29868213Y53193991D01*
X29870178Y53199200D01*
X29878072Y53216182D01*
X29880790Y53221046D01*
X29915122Y53318217D01*
X29916026Y53320691D01*
X29932049Y53363149D01*
X29952386Y53417037D01*
X29953443Y53422505D01*
X29958347Y53440557D01*
X29960211Y53445829D01*
X29977632Y53547440D01*
X29978095Y53549979D01*
X29997654Y53651100D01*
X29997772Y53656685D01*
X29999555Y53675295D01*
X30000500Y53680800D01*
X30000500Y53783776D01*
X30000528Y53786450D01*
X30000555Y53787753D01*
X30002715Y53889447D01*
X30001888Y53894973D01*
X30000500Y53913623D01*
X30000500Y54951387D01*
X30000755Y54959405D01*
X30001395Y54969447D01*
X30005246Y55029834D01*
X29994333Y55132261D01*
X29994083Y55134877D01*
X29988369Y55202013D01*
X29985346Y55237541D01*
X29983936Y55242954D01*
X29980581Y55261355D01*
X29979991Y55266892D01*
X29969231Y55304888D01*
X29951935Y55365967D01*
X29951240Y55368526D01*
X29925275Y55468249D01*
X29922975Y55473336D01*
X29916556Y55490905D01*
X29915037Y55496273D01*
X29870632Y55589202D01*
X29869514Y55591607D01*
X29827076Y55685488D01*
X29823952Y55690110D01*
X29814659Y55706339D01*
X29812252Y55711376D01*
X29794271Y55736799D01*
X29752745Y55795513D01*
X29751241Y55797689D01*
X29693579Y55883003D01*
X29689713Y55887037D01*
X29677809Y55901464D01*
X29674590Y55906016D01*
X29601756Y55978850D01*
X29599931Y55980714D01*
X29528619Y56055120D01*
X29524122Y56058446D01*
X29509953Y56070653D01*
X26204692Y59375914D01*
X26199202Y59381764D01*
X26152564Y59434755D01*
X26072374Y59499504D01*
X26070389Y59501143D01*
X25991619Y59567556D01*
X25986808Y59570379D01*
X25971423Y59581016D01*
X25967080Y59584523D01*
X25967076Y59584525D01*
X25967074Y59584527D01*
X25877135Y59634771D01*
X25874814Y59636100D01*
X25786012Y59688212D01*
X25780781Y59690186D01*
X25763819Y59698072D01*
X25758952Y59700791D01*
X25661833Y59735106D01*
X25659322Y59736023D01*
X25562965Y59772386D01*
X25557484Y59773446D01*
X25539446Y59778348D01*
X25534173Y59780211D01*
X25432643Y59797621D01*
X25430014Y59798100D01*
X25328894Y59817657D01*
X25323307Y59817775D01*
X25304698Y59819558D01*
X25299203Y59820500D01*
X25299200Y59820500D01*
X25196244Y59820500D01*
X25193570Y59820528D01*
X25090552Y59822715D01*
X25090549Y59822715D01*
X25085027Y59821888D01*
X25066377Y59820500D01*
X19502296Y59820500D01*
X19454078Y59830091D01*
X19413201Y59857405D01*
X14799667Y64470939D01*
X14770227Y64517309D01*
X14763312Y64571798D01*
X14780237Y64624052D01*
X14817781Y64664139D01*
X14859479Y64692567D01*
X14949297Y64775907D01*
X15003908Y64805647D01*
X15066092Y64805647D01*
X15120702Y64775907D01*
X15210521Y64692567D01*
X15427296Y64544772D01*
X15484324Y64517309D01*
X15663676Y64430937D01*
X15735637Y64408741D01*
X15914385Y64353604D01*
X16173818Y64314500D01*
X16436180Y64314500D01*
X16436182Y64314500D01*
X16695615Y64353604D01*
X16946323Y64430937D01*
X17182704Y64544772D01*
X17399479Y64692567D01*
X17489297Y64775907D01*
X17543908Y64805647D01*
X17606092Y64805647D01*
X17660702Y64775907D01*
X17750521Y64692567D01*
X17967296Y64544772D01*
X18024324Y64517309D01*
X18203676Y64430937D01*
X18275637Y64408741D01*
X18454385Y64353604D01*
X18713818Y64314500D01*
X18976180Y64314500D01*
X18976182Y64314500D01*
X19235615Y64353604D01*
X19486323Y64430937D01*
X19722704Y64544772D01*
X19939479Y64692567D01*
X20029297Y64775907D01*
X20083908Y64805647D01*
X20146092Y64805647D01*
X20200702Y64775907D01*
X20290521Y64692567D01*
X20507296Y64544772D01*
X20564324Y64517309D01*
X20743676Y64430937D01*
X20815637Y64408741D01*
X20994385Y64353604D01*
X21253818Y64314500D01*
X21516180Y64314500D01*
X21516182Y64314500D01*
X21775615Y64353604D01*
X22026323Y64430937D01*
X22262704Y64544772D01*
X22344036Y64600224D01*
X22404816Y64621705D01*
X22468267Y64610311D01*
X22517778Y64569026D01*
X22533536Y64526950D01*
X22536951Y64527839D01*
X22541059Y64512063D01*
X22544416Y64493663D01*
X22545008Y64488105D01*
X22573070Y64389004D01*
X22573771Y64386425D01*
X22599725Y64286748D01*
X22602026Y64281658D01*
X22608438Y64264105D01*
X22609960Y64258731D01*
X22654386Y64165759D01*
X22655494Y64163376D01*
X22669580Y64132214D01*
X22697921Y64069516D01*
X22701043Y64064898D01*
X22710341Y64048661D01*
X22712749Y64043622D01*
X22772236Y63959512D01*
X22773754Y63957317D01*
X22831421Y63871997D01*
X22835284Y63867966D01*
X22847184Y63853545D01*
X22850410Y63848984D01*
X22923241Y63776153D01*
X22925066Y63774289D01*
X22996379Y63699882D01*
X23000874Y63696558D01*
X23015044Y63684350D01*
X30962595Y55736799D01*
X30989909Y55695922D01*
X30999500Y55647704D01*
X30999500Y42132296D01*
X30989909Y42084078D01*
X30962595Y42043201D01*
X26747923Y37828531D01*
X26686866Y37794785D01*
X26617213Y37798697D01*
X26560319Y37839065D01*
X26440050Y37989877D01*
X26420908Y38007638D01*
X26385321Y38065874D01*
X26385321Y38134126D01*
X26420908Y38192363D01*
X26440050Y38210123D01*
X26598959Y38409388D01*
X26726393Y38630112D01*
X26819508Y38867363D01*
X26876222Y39115843D01*
X26895268Y39370000D01*
X26876222Y39624157D01*
X26819508Y39872637D01*
X26726393Y40109888D01*
X26598959Y40330612D01*
X26440050Y40529877D01*
X26420908Y40547638D01*
X26385321Y40605874D01*
X26385321Y40674126D01*
X26420908Y40732363D01*
X26440050Y40750123D01*
X26598959Y40949388D01*
X26726393Y41170112D01*
X26819508Y41407363D01*
X26876222Y41655843D01*
X26895268Y41910000D01*
X26876222Y42164157D01*
X26819508Y42412637D01*
X26726393Y42649888D01*
X26598959Y42870612D01*
X26440050Y43069877D01*
X26420909Y43087637D01*
X26385321Y43145876D01*
X26385322Y43214129D01*
X26420910Y43272365D01*
X26440050Y43290123D01*
X26598959Y43489388D01*
X26726393Y43710112D01*
X26819508Y43947363D01*
X26876222Y44195843D01*
X26895268Y44450000D01*
X26876222Y44704157D01*
X26819508Y44952637D01*
X26726393Y45189888D01*
X26598959Y45410612D01*
X26440050Y45609877D01*
X26420909Y45627637D01*
X26385321Y45685876D01*
X26385322Y45754129D01*
X26420910Y45812365D01*
X26440050Y45830123D01*
X26598959Y46029388D01*
X26726393Y46250112D01*
X26819508Y46487363D01*
X26876222Y46735843D01*
X26895268Y46990000D01*
X26876222Y47244157D01*
X26819508Y47492637D01*
X26726393Y47729888D01*
X26598959Y47950612D01*
X26440050Y48149877D01*
X26253217Y48323232D01*
X26129016Y48407911D01*
X26091471Y48447997D01*
X26074546Y48500251D01*
X26081461Y48554741D01*
X26110901Y48601111D01*
X26195812Y48686022D01*
X26327087Y48873502D01*
X26423813Y49080930D01*
X26476082Y49276000D01*
X23903918Y49276000D01*
X23956186Y49080930D01*
X24052912Y48873502D01*
X24184189Y48686019D01*
X24269097Y48601111D01*
X24298537Y48554742D01*
X24305452Y48500253D01*
X24288528Y48447999D01*
X24250981Y48407911D01*
X24126788Y48323237D01*
X24126781Y48323232D01*
X24126783Y48323232D01*
X23939950Y48149877D01*
X23781041Y47950612D01*
X23781039Y47950609D01*
X23653607Y47729889D01*
X23560492Y47492638D01*
X23510701Y47274488D01*
X23503778Y47244157D01*
X23484732Y46990000D01*
X23503778Y46735843D01*
X23560492Y46487363D01*
X23653607Y46250112D01*
X23781041Y46029388D01*
X23939950Y45830123D01*
X23939952Y45830121D01*
X23959088Y45812366D01*
X23994677Y45754128D01*
X23994678Y45685877D01*
X23959091Y45627638D01*
X23939950Y45609878D01*
X23836176Y45479749D01*
X23792723Y45425260D01*
X23781039Y45410609D01*
X23653607Y45189889D01*
X23560492Y44952638D01*
X23503778Y44704159D01*
X23496323Y44604680D01*
X23484732Y44450000D01*
X23503778Y44195843D01*
X23560492Y43947363D01*
X23653607Y43710112D01*
X23781041Y43489388D01*
X23925969Y43307655D01*
X23939952Y43290121D01*
X23959088Y43272366D01*
X23994677Y43214128D01*
X23994678Y43145877D01*
X23959091Y43087638D01*
X23939950Y43069878D01*
X23781039Y42870609D01*
X23653607Y42649889D01*
X23560492Y42412638D01*
X23503778Y42164159D01*
X23484732Y41910001D01*
X23503778Y41655842D01*
X23511662Y41621302D01*
X23560492Y41407363D01*
X23653607Y41170112D01*
X23781041Y40949388D01*
X23939950Y40750123D01*
X23939952Y40750121D01*
X23939953Y40750120D01*
X23959089Y40732363D01*
X23994677Y40674125D01*
X23994677Y40605875D01*
X23959089Y40547637D01*
X23939953Y40529881D01*
X23781039Y40330609D01*
X23653607Y40109889D01*
X23560492Y39872638D01*
X23503778Y39624159D01*
X23484732Y39370001D01*
X23503778Y39115842D01*
X23515835Y39063016D01*
X23560492Y38867363D01*
X23653607Y38630112D01*
X23781041Y38409388D01*
X23939950Y38210123D01*
X23939952Y38210121D01*
X23939953Y38210120D01*
X23959089Y38192363D01*
X23994677Y38134125D01*
X23994677Y38065875D01*
X23959089Y38007637D01*
X23939953Y37989881D01*
X23939949Y37989877D01*
X23939950Y37989877D01*
X23811281Y37828531D01*
X23781039Y37790609D01*
X23653608Y37569892D01*
X23560491Y37332637D01*
X23523751Y37171670D01*
X23490005Y37110613D01*
X21684084Y35304692D01*
X21678237Y35299205D01*
X21625246Y35252566D01*
X21560519Y35172405D01*
X21558819Y35170345D01*
X21492444Y35091620D01*
X21489613Y35086795D01*
X21478985Y35071426D01*
X21475477Y35067082D01*
X21425269Y34977206D01*
X21423941Y34974888D01*
X21371786Y34886011D01*
X21369814Y34880783D01*
X21361933Y34863829D01*
X21359209Y34858954D01*
X21324883Y34761803D01*
X21323982Y34759336D01*
X21287614Y34662963D01*
X21287611Y34662954D01*
X21286550Y34657470D01*
X21281652Y34639447D01*
X21279788Y34634171D01*
X21262379Y34532645D01*
X21261900Y34530016D01*
X21242343Y34428896D01*
X21242225Y34423307D01*
X21240442Y34404698D01*
X21239500Y34399203D01*
X21239500Y34296244D01*
X21239472Y34293570D01*
X21237285Y34190550D01*
X21238112Y34185027D01*
X21239500Y34166377D01*
X21239500Y32120658D01*
X21221422Y32055628D01*
X21172376Y32009259D01*
X21106435Y31994856D01*
X21042522Y32016552D01*
X21002775Y32043651D01*
X21002774Y32043652D01*
X21002772Y32043653D01*
X20759641Y32160739D01*
X20573197Y32218249D01*
X20501772Y32240280D01*
X20234929Y32280500D01*
X19965071Y32280500D01*
X19698228Y32240280D01*
X19698224Y32240279D01*
X19698225Y32240279D01*
X19440358Y32160739D01*
X19197225Y32043651D01*
X18974258Y31891636D01*
X18776442Y31708088D01*
X18776439Y31708085D01*
X18608185Y31497102D01*
X18608183Y31497099D01*
X18473258Y31263401D01*
X18374665Y31012194D01*
X18314617Y30749106D01*
X18294451Y30480000D01*
X18314617Y30210895D01*
X18374665Y29947807D01*
X18473258Y29696600D01*
X18608185Y29462898D01*
X18672011Y29382862D01*
X18692429Y29345918D01*
X18699500Y29304303D01*
X18699500Y23717311D01*
X18680742Y23651165D01*
X18630052Y23604715D01*
X18622473Y23603265D01*
X17879210Y22860000D01*
X17879210Y22859999D01*
X18622472Y22116737D01*
X18630052Y22115286D01*
X18680742Y22068836D01*
X18699500Y22002690D01*
X18699500Y14018629D01*
X18699245Y14010611D01*
X18694753Y13940164D01*
X18705663Y13837750D01*
X18705918Y13835089D01*
X18714653Y13732462D01*
X18716059Y13727063D01*
X18719416Y13708663D01*
X18720008Y13703105D01*
X18748070Y13604004D01*
X18748771Y13601425D01*
X18774725Y13501748D01*
X18777026Y13496658D01*
X18783438Y13479105D01*
X18784960Y13473731D01*
X18829386Y13380759D01*
X18830494Y13378376D01*
X18843975Y13348553D01*
X18872921Y13284516D01*
X18876043Y13279898D01*
X18885341Y13263661D01*
X18887749Y13258622D01*
X18947236Y13174512D01*
X18948754Y13172317D01*
X19006421Y13086997D01*
X19010284Y13082966D01*
X19022184Y13068545D01*
X19025410Y13063984D01*
X19098241Y12991153D01*
X19100066Y12989289D01*
X19171379Y12914882D01*
X19175874Y12911558D01*
X19190044Y12899350D01*
X21615307Y10474087D01*
X21620796Y10468238D01*
X21667436Y10415245D01*
X21717425Y10374882D01*
X21747554Y10350554D01*
X21749617Y10348852D01*
X21828379Y10282446D01*
X21833186Y10279625D01*
X21848570Y10268990D01*
X21852920Y10265477D01*
X21942848Y10215241D01*
X21945120Y10213940D01*
X22033991Y10161787D01*
X22039204Y10159820D01*
X22056174Y10151931D01*
X22061039Y10149213D01*
X22061043Y10149212D01*
X22061046Y10149210D01*
X22158224Y10114875D01*
X22160670Y10113981D01*
X22185200Y10104724D01*
X22254853Y10078438D01*
X22257037Y10077614D01*
X22262513Y10076555D01*
X22280557Y10071652D01*
X22285829Y10069789D01*
X22387421Y10052371D01*
X22390027Y10051895D01*
X22491100Y10032346D01*
X22496684Y10032228D01*
X22515293Y10030445D01*
X22520800Y10029500D01*
X22623776Y10029500D01*
X22626450Y10029472D01*
X22627778Y10029444D01*
X22729447Y10027285D01*
X22733497Y10027892D01*
X22734973Y10028112D01*
X22753623Y10029500D01*
X27671371Y10029500D01*
X27679388Y10029245D01*
X27683583Y10028978D01*
X27749834Y10024753D01*
X27852315Y10035672D01*
X27854871Y10035917D01*
X27957541Y10044654D01*
X27962936Y10046060D01*
X27981345Y10049418D01*
X27986893Y10050008D01*
X28086032Y10078082D01*
X28088546Y10078766D01*
X28188249Y10104725D01*
X28193330Y10107023D01*
X28210893Y10113439D01*
X28216273Y10114962D01*
X28309273Y10159403D01*
X28311628Y10160498D01*
X28405486Y10202923D01*
X28410102Y10206044D01*
X28426332Y10215339D01*
X28431378Y10217749D01*
X28515566Y10277294D01*
X28517611Y10278707D01*
X28603003Y10336421D01*
X28607033Y10340285D01*
X28621463Y10352191D01*
X28626016Y10355410D01*
X28698892Y10428288D01*
X28700709Y10430066D01*
X28775118Y10501379D01*
X28778442Y10505875D01*
X28790645Y10520041D01*
X30716604Y12446000D01*
X31463455Y12446000D01*
X31511177Y12257549D01*
X31601580Y12051452D01*
X31724678Y11863038D01*
X31877096Y11697467D01*
X32054697Y11559234D01*
X32252631Y11452117D01*
X32465485Y11379045D01*
X32546000Y11365609D01*
X32546000Y12446000D01*
X33054000Y12446000D01*
X33054000Y11365609D01*
X33134514Y11379045D01*
X33347368Y11452117D01*
X33545302Y11559234D01*
X33722903Y11697467D01*
X33875321Y11863038D01*
X33998419Y12051452D01*
X34088822Y12257549D01*
X34136544Y12446000D01*
X33054000Y12446000D01*
X32546000Y12446000D01*
X31463455Y12446000D01*
X30716604Y12446000D01*
X31258029Y12987425D01*
X31319566Y13021277D01*
X31389669Y13016925D01*
X31446551Y12975719D01*
X31463456Y12954000D01*
X34136544Y12954000D01*
X34136544Y12954001D01*
X34088822Y13142452D01*
X33998417Y13348553D01*
X33973057Y13387370D01*
X33952563Y13453855D01*
X33970478Y13521081D01*
X34021336Y13568551D01*
X34095087Y13606129D01*
X34143148Y13630616D01*
X34157139Y13641946D01*
X34290257Y13749743D01*
X34409383Y13896851D01*
X34495320Y14065512D01*
X34544312Y14248355D01*
X34550500Y14326979D01*
X34550499Y16153020D01*
X34544312Y16231645D01*
X34495320Y16414488D01*
X34467785Y16468527D01*
X34409384Y16583149D01*
X34349820Y16656703D01*
X34290257Y16730257D01*
X34230692Y16778492D01*
X34143148Y16849385D01*
X33974490Y16935319D01*
X33974489Y16935320D01*
X33974488Y16935320D01*
X33791645Y16984312D01*
X33713021Y16990500D01*
X33713015Y16990500D01*
X31886984Y16990500D01*
X31847667Y16987406D01*
X31808355Y16984312D01*
X31808351Y16984312D01*
X31808351Y16984311D01*
X31766101Y16972991D01*
X31700879Y16972992D01*
X31644395Y17005604D01*
X31611785Y17062088D01*
X31611785Y17127310D01*
X31644395Y17183791D01*
X35555935Y21095331D01*
X35561736Y21100775D01*
X35614755Y21147436D01*
X35679476Y21227593D01*
X35681117Y21229583D01*
X35747555Y21308380D01*
X35750379Y21313194D01*
X35761022Y21328586D01*
X35764523Y21332920D01*
X35764524Y21332923D01*
X35771266Y21341270D01*
X35772473Y21340295D01*
X35809270Y21378040D01*
X35872431Y21395635D01*
X35935882Y21379114D01*
X35982441Y21332948D01*
X35999500Y21269640D01*
X35999500Y126500D01*
X35982619Y63500D01*
X35936500Y17381D01*
X35873500Y500D01*
X5875297Y500D01*
X5818095Y14233D01*
X5773361Y52438D01*
X5750848Y106788D01*
X5755463Y165434D01*
X5786200Y215594D01*
X5797400Y226795D01*
X5838892Y268288D01*
X5840709Y270066D01*
X5915118Y341379D01*
X5918442Y345875D01*
X5930645Y360041D01*
X8355935Y2785331D01*
X8361736Y2790775D01*
X8414755Y2837436D01*
X8479488Y2917608D01*
X8481121Y2919587D01*
X8547554Y2998379D01*
X8550377Y3003192D01*
X8561017Y3018580D01*
X8564523Y3022920D01*
X8614759Y3112850D01*
X8616054Y3115111D01*
X8668213Y3203991D01*
X8670178Y3209200D01*
X8678072Y3226182D01*
X8680790Y3231046D01*
X8715122Y3328217D01*
X8716026Y3330691D01*
X8717912Y3335688D01*
X8752386Y3427037D01*
X8753443Y3432505D01*
X8758347Y3450557D01*
X8760211Y3455829D01*
X8777632Y3557440D01*
X8778095Y3559979D01*
X8797654Y3661100D01*
X8797772Y3666685D01*
X8799555Y3685295D01*
X8800500Y3690800D01*
X8800500Y3793776D01*
X8800528Y3796450D01*
X8801536Y3843936D01*
X8802715Y3899447D01*
X8801888Y3904973D01*
X8800500Y3923623D01*
X8800500Y3984499D01*
X8807566Y4026102D01*
X8827973Y4063038D01*
X8828003Y4063077D01*
X8830258Y4065905D01*
X8872095Y4099890D01*
X8924308Y4113284D01*
X8977341Y4103631D01*
X9007686Y4082368D01*
X9008861Y4083876D01*
X9194697Y3939234D01*
X9392631Y3832117D01*
X9605485Y3759045D01*
X9686000Y3745609D01*
X9686000Y5208000D01*
X9702881Y5271000D01*
X9749000Y5317119D01*
X9812000Y5334000D01*
X10068000Y5334000D01*
X10131000Y5317119D01*
X10177119Y5271000D01*
X10194000Y5208000D01*
X10194000Y3745609D01*
X10274514Y3759045D01*
X10487368Y3832117D01*
X10685302Y3939234D01*
X10871139Y4083876D01*
X10872314Y4082367D01*
X10902636Y4103621D01*
X10955666Y4113284D01*
X11007882Y4099902D01*
X11049724Y4065925D01*
X11193195Y3886019D01*
X11385521Y3707567D01*
X11385523Y3707566D01*
X11385525Y3707564D01*
X11431742Y3676054D01*
X11602296Y3559772D01*
X11724841Y3500758D01*
X11838676Y3445937D01*
X11899943Y3427039D01*
X12089385Y3368604D01*
X12348818Y3329500D01*
X12611180Y3329500D01*
X12611182Y3329500D01*
X12870615Y3368604D01*
X13121323Y3445937D01*
X13357704Y3559772D01*
X13501200Y3657607D01*
X13535039Y3673902D01*
X13572178Y3679500D01*
X22711760Y3679500D01*
X22768963Y3665767D01*
X22933012Y3582180D01*
X23115855Y3533188D01*
X23194479Y3527000D01*
X24820520Y3527001D01*
X24899145Y3533188D01*
X25081988Y3582180D01*
X25194428Y3639472D01*
X25250648Y3668116D01*
X25299362Y3707564D01*
X25397757Y3787243D01*
X25414307Y3807682D01*
X25461984Y3843936D01*
X25521016Y3854080D01*
X25578060Y3835821D01*
X25795872Y3702346D01*
X26035890Y3602927D01*
X26288506Y3542279D01*
X26547500Y3521896D01*
X26806494Y3542279D01*
X27059110Y3602927D01*
X27299128Y3702346D01*
X27520640Y3838088D01*
X27692065Y3984499D01*
X27718186Y4006808D01*
X27721686Y4010906D01*
X27764747Y4043504D01*
X27817500Y4055079D01*
X27870253Y4043504D01*
X27913314Y4010906D01*
X27916813Y4006808D01*
X28107513Y3843936D01*
X28114360Y3838088D01*
X28335872Y3702346D01*
X28575890Y3602927D01*
X28828506Y3542279D01*
X29087500Y3521896D01*
X29346494Y3542279D01*
X29599110Y3602927D01*
X29839128Y3702346D01*
X30060640Y3838088D01*
X30258189Y4006811D01*
X30360244Y4126302D01*
X30935512Y4126302D01*
X30996095Y4083880D01*
X31195594Y3990851D01*
X31408215Y3933881D01*
X31627500Y3914696D01*
X31846784Y3933881D01*
X32059404Y3990851D01*
X32258905Y4083881D01*
X32319486Y4126302D01*
X32319486Y4126303D01*
X31627500Y4818290D01*
X31627499Y4818290D01*
X30935512Y4126304D01*
X30935512Y4126302D01*
X30360244Y4126302D01*
X30426912Y4204360D01*
X30562654Y4425872D01*
X30585586Y4481236D01*
X30612898Y4522111D01*
X31268289Y5177500D01*
X31986710Y5177500D01*
X32678697Y4485514D01*
X32678698Y4485514D01*
X32721119Y4546095D01*
X32814149Y4745596D01*
X32871119Y4958216D01*
X32890304Y5177501D01*
X32871119Y5396785D01*
X32814149Y5609405D01*
X32721120Y5808903D01*
X32678698Y5869488D01*
X32678696Y5869488D01*
X31986710Y5177501D01*
X31986710Y5177500D01*
X31268289Y5177500D01*
X30612899Y5832889D01*
X30585585Y5873767D01*
X30562654Y5929127D01*
X30562654Y5929128D01*
X30426912Y6150640D01*
X30380587Y6204880D01*
X30360244Y6228699D01*
X30935511Y6228699D01*
X31627499Y5536711D01*
X31627500Y5536711D01*
X32319486Y6228699D01*
X32319486Y6228700D01*
X32258903Y6271121D01*
X32059405Y6364150D01*
X31846784Y6421120D01*
X31627500Y6440305D01*
X31408215Y6421120D01*
X31195592Y6364149D01*
X30996098Y6271122D01*
X30935511Y6228699D01*
X30360244Y6228699D01*
X30258189Y6348190D01*
X30060644Y6516909D01*
X30060642Y6516911D01*
X30060640Y6516912D01*
X29839128Y6652654D01*
X29735460Y6695595D01*
X29599111Y6752073D01*
X29346494Y6812721D01*
X29087500Y6833104D01*
X28828505Y6812721D01*
X28575888Y6752073D01*
X28335873Y6652655D01*
X28114355Y6516909D01*
X27916809Y6348189D01*
X27913310Y6344091D01*
X27870251Y6311496D01*
X27817500Y6299922D01*
X27764749Y6311496D01*
X27721690Y6344091D01*
X27718190Y6348189D01*
X27520644Y6516909D01*
X27520642Y6516911D01*
X27520640Y6516912D01*
X27299128Y6652654D01*
X27059110Y6752073D01*
X27059106Y6752074D01*
X27049949Y6755867D01*
X27050847Y6758037D01*
X27003614Y6784492D01*
X25212192Y8575914D01*
X25206702Y8581764D01*
X25160064Y8634755D01*
X25079874Y8699504D01*
X25077889Y8701143D01*
X24999119Y8767556D01*
X24994308Y8770379D01*
X24978923Y8781016D01*
X24974580Y8784523D01*
X24974576Y8784525D01*
X24974574Y8784527D01*
X24884635Y8834771D01*
X24882314Y8836100D01*
X24793512Y8888212D01*
X24788281Y8890186D01*
X24771319Y8898072D01*
X24766452Y8900791D01*
X24669333Y8935106D01*
X24666822Y8936023D01*
X24570465Y8972386D01*
X24564984Y8973446D01*
X24546946Y8978348D01*
X24541673Y8980211D01*
X24440143Y8997621D01*
X24437514Y8998100D01*
X24336394Y9017657D01*
X24330807Y9017775D01*
X24312198Y9019558D01*
X24306703Y9020500D01*
X24306700Y9020500D01*
X24203744Y9020500D01*
X24201070Y9020528D01*
X24098052Y9022715D01*
X24098049Y9022715D01*
X24092527Y9021888D01*
X24073877Y9020500D01*
X22612296Y9020500D01*
X22564078Y9030091D01*
X22523201Y9057405D01*
X13917405Y17663201D01*
X13890091Y17704078D01*
X13880500Y17752296D01*
X13880500Y21054497D01*
X13893494Y21110225D01*
X13929796Y21154460D01*
X13981919Y21178076D01*
X14039107Y21176205D01*
X14078355Y21165688D01*
X14156979Y21159500D01*
X15883020Y21159501D01*
X15961645Y21165688D01*
X16144488Y21214680D01*
X16256928Y21271972D01*
X16313148Y21300616D01*
X16328670Y21313186D01*
X16460257Y21419743D01*
X16579383Y21566851D01*
X16579435Y21566952D01*
X16646897Y21699355D01*
X16695530Y21750904D01*
X16764294Y21768049D01*
X16831436Y21745365D01*
X16863500Y21722913D01*
X17070929Y21626187D01*
X17292000Y21566952D01*
X17520000Y21547005D01*
X17747999Y21566952D01*
X17969070Y21626187D01*
X18176498Y21722913D01*
X18247888Y21772901D01*
X18247888Y21772903D01*
X17249885Y22770906D01*
X17217273Y22827390D01*
X17217273Y22892612D01*
X17249885Y22949097D01*
X17520000Y23219211D01*
X17520003Y23219214D01*
X18247888Y23947101D01*
X18176497Y23997088D01*
X17969070Y24093814D01*
X17747999Y24153049D01*
X17520000Y24172996D01*
X17292000Y24153049D01*
X17070929Y24093814D01*
X16863499Y23997087D01*
X16831433Y23974634D01*
X16764292Y23951952D01*
X16695529Y23969098D01*
X16646897Y24020646D01*
X16579384Y24153149D01*
X16451923Y24310548D01*
X16453591Y24311900D01*
X16432775Y24338304D01*
X16420500Y24392550D01*
X16420500Y32387704D01*
X16430091Y32435922D01*
X16457405Y32476799D01*
X20243201Y36262596D01*
X20284078Y36289910D01*
X20332296Y36299501D01*
X21063015Y36299501D01*
X21063020Y36299501D01*
X21141645Y36305688D01*
X21324488Y36354680D01*
X21436928Y36411972D01*
X21493148Y36440616D01*
X21507139Y36451946D01*
X21640257Y36559743D01*
X21759383Y36706851D01*
X21845320Y36875512D01*
X21894312Y37058355D01*
X21900500Y37136979D01*
X21900499Y39063020D01*
X21894312Y39141645D01*
X21845320Y39324488D01*
X21817785Y39378527D01*
X21759384Y39493149D01*
X21693560Y39574434D01*
X21640257Y39640257D01*
X21547203Y39715611D01*
X21512774Y39759283D01*
X21500500Y39813528D01*
X21500500Y44423501D01*
X21517381Y44486501D01*
X21563500Y44532620D01*
X21626500Y44549501D01*
X21773015Y44549501D01*
X21773020Y44549501D01*
X21851645Y44555688D01*
X22034488Y44604680D01*
X22146928Y44661972D01*
X22203148Y44690616D01*
X22219872Y44704159D01*
X22350257Y44809743D01*
X22465971Y44952637D01*
X22469384Y44956852D01*
X22545632Y45106499D01*
X22555320Y45125512D01*
X22604312Y45308355D01*
X22610500Y45386979D01*
X22610499Y47013020D01*
X22604312Y47091645D01*
X22555320Y47274488D01*
X22545990Y47292799D01*
X22532257Y47350000D01*
X22545990Y47407202D01*
X22555320Y47425512D01*
X22604312Y47608355D01*
X22610500Y47686979D01*
X22610499Y49313020D01*
X22604312Y49391645D01*
X22555320Y49574488D01*
X22527785Y49628527D01*
X22469384Y49743149D01*
X22409820Y49816703D01*
X22350257Y49890257D01*
X22264705Y49959536D01*
X22230274Y50003212D01*
X22218000Y50057456D01*
X22218000Y50546000D01*
X19202000Y50546000D01*
X19202000Y50057456D01*
X19189726Y50003212D01*
X19155295Y49959536D01*
X19069743Y49890257D01*
X18950615Y49743149D01*
X18864681Y49574491D01*
X18815688Y49391646D01*
X18809500Y49313016D01*
X18809500Y47686985D01*
X18815688Y47608355D01*
X18864679Y47425514D01*
X18864681Y47425510D01*
X18874009Y47407202D01*
X18887742Y47350001D01*
X18874010Y47292800D01*
X18864681Y47274491D01*
X18864680Y47274489D01*
X18864680Y47274488D01*
X18856553Y47244157D01*
X18815688Y47091646D01*
X18809500Y47013016D01*
X18809500Y46163078D01*
X18802302Y46121101D01*
X18784888Y46071817D01*
X18783972Y46069308D01*
X18747611Y45972954D01*
X18746550Y45967470D01*
X18741652Y45949447D01*
X18739788Y45944171D01*
X18722379Y45842645D01*
X18721900Y45840016D01*
X18702343Y45738896D01*
X18702225Y45733307D01*
X18700442Y45714698D01*
X18699500Y45709203D01*
X18699500Y45606244D01*
X18699472Y45603570D01*
X18697285Y45500550D01*
X18698112Y45495027D01*
X18699500Y45476377D01*
X18699500Y39813528D01*
X18687226Y39759283D01*
X18652796Y39715611D01*
X18559743Y39640257D01*
X18559742Y39640256D01*
X18440615Y39493149D01*
X18354681Y39324491D01*
X18305688Y39141646D01*
X18299500Y39063016D01*
X18299500Y38332297D01*
X18289909Y38284079D01*
X18262595Y38243202D01*
X14095595Y34076202D01*
X14045436Y34045464D01*
X13986789Y34040848D01*
X13932439Y34063361D01*
X13894233Y34108094D01*
X13880500Y34165297D01*
X13880500Y40593870D01*
X13880755Y40601888D01*
X13883185Y40640000D01*
X13885247Y40672333D01*
X13874333Y40774772D01*
X13874081Y40777409D01*
X13865346Y40880041D01*
X13863938Y40885446D01*
X13860582Y40903849D01*
X13859992Y40909392D01*
X13831901Y41008593D01*
X13831254Y41010975D01*
X13805275Y41110749D01*
X13802975Y41115836D01*
X13796559Y41133402D01*
X13795038Y41138772D01*
X13795038Y41138773D01*
X13750591Y41231788D01*
X13749532Y41234067D01*
X13707077Y41327986D01*
X13703946Y41332618D01*
X13694657Y41348841D01*
X13692251Y41353877D01*
X13632756Y41437996D01*
X13631255Y41440167D01*
X13573579Y41525503D01*
X13569717Y41529532D01*
X13557811Y41543961D01*
X13554590Y41548516D01*
X13481804Y41621302D01*
X13479932Y41623213D01*
X13408619Y41697620D01*
X13404122Y41700946D01*
X13389953Y41713153D01*
X12237192Y42865914D01*
X12231702Y42871764D01*
X12185064Y42924755D01*
X12104874Y42989504D01*
X12102889Y42991143D01*
X12024119Y43057556D01*
X12019308Y43060379D01*
X12003923Y43071016D01*
X11999580Y43074523D01*
X11999576Y43074525D01*
X11999574Y43074527D01*
X11909635Y43124771D01*
X11907314Y43126100D01*
X11818512Y43178212D01*
X11813281Y43180186D01*
X11796319Y43188072D01*
X11791452Y43190791D01*
X11694333Y43225106D01*
X11691822Y43226023D01*
X11595465Y43262386D01*
X11589984Y43263446D01*
X11571946Y43268348D01*
X11566673Y43270211D01*
X11465143Y43287621D01*
X11462514Y43288100D01*
X11361394Y43307657D01*
X11355807Y43307775D01*
X11337198Y43309558D01*
X11331703Y43310500D01*
X11331700Y43310500D01*
X11228744Y43310500D01*
X11226070Y43310528D01*
X11123052Y43312715D01*
X11123049Y43312715D01*
X11117527Y43311888D01*
X11098877Y43310500D01*
X10964482Y43310500D01*
X10907279Y43324233D01*
X10862546Y43362439D01*
X10840033Y43416789D01*
X10844649Y43475436D01*
X10875387Y43525595D01*
X10955810Y43606019D01*
X11087087Y43793502D01*
X11183813Y44000930D01*
X11236082Y44196000D01*
X8663918Y44196000D01*
X8716186Y44000930D01*
X8812912Y43793502D01*
X8944189Y43606019D01*
X9029097Y43521111D01*
X9058537Y43474742D01*
X9065452Y43420253D01*
X9048528Y43367999D01*
X9010981Y43327911D01*
X8886788Y43243237D01*
X8867248Y43225106D01*
X8699950Y43069877D01*
X8541960Y42871764D01*
X8541039Y42870609D01*
X8413607Y42649889D01*
X8320492Y42412638D01*
X8263778Y42164159D01*
X8244732Y41910001D01*
X8263778Y41655842D01*
X8271662Y41621302D01*
X8320492Y41407363D01*
X8413607Y41170112D01*
X8541041Y40949388D01*
X8699950Y40750123D01*
X8699952Y40750121D01*
X8699953Y40750120D01*
X8719089Y40732363D01*
X8754677Y40674125D01*
X8754677Y40605875D01*
X8719089Y40547637D01*
X8699953Y40529881D01*
X8541039Y40330609D01*
X8413607Y40109889D01*
X8320492Y39872638D01*
X8263778Y39624159D01*
X8244732Y39370001D01*
X8263778Y39115842D01*
X8275835Y39063016D01*
X8320492Y38867363D01*
X8413607Y38630112D01*
X8541041Y38409388D01*
X8699950Y38210123D01*
X8699952Y38210121D01*
X8699953Y38210120D01*
X8719089Y38192363D01*
X8754677Y38134125D01*
X8754677Y38065875D01*
X8719089Y38007637D01*
X8699953Y37989881D01*
X8699949Y37989877D01*
X8699950Y37989877D01*
X8571281Y37828531D01*
X8541039Y37790609D01*
X8413607Y37569889D01*
X8320492Y37332638D01*
X8263778Y37084159D01*
X8244732Y36830000D01*
X8253960Y36706851D01*
X8263778Y36575843D01*
X8320492Y36327363D01*
X8413607Y36090112D01*
X8541041Y35869388D01*
X8699950Y35670123D01*
X8699952Y35670121D01*
X8699953Y35670120D01*
X8719089Y35652363D01*
X8754677Y35594125D01*
X8754677Y35525875D01*
X8719089Y35467637D01*
X8699953Y35449881D01*
X8699949Y35449877D01*
X8699950Y35449877D01*
X8542600Y35252566D01*
X8541039Y35250609D01*
X8413607Y35029889D01*
X8320492Y34792638D01*
X8263778Y34544159D01*
X8254722Y34423307D01*
X8244732Y34290000D01*
X8263778Y34035843D01*
X8320492Y33787363D01*
X8413607Y33550112D01*
X8541041Y33329388D01*
X8699950Y33130123D01*
X8699952Y33130121D01*
X8699953Y33130120D01*
X8719089Y33112363D01*
X8754677Y33054125D01*
X8754677Y32985875D01*
X8719089Y32927637D01*
X8699953Y32909881D01*
X8541039Y32710609D01*
X8413607Y32489889D01*
X8320492Y32252638D01*
X8272793Y32043653D01*
X8263778Y32004157D01*
X8244732Y31750000D01*
X8263778Y31495843D01*
X8320492Y31247363D01*
X8413607Y31010112D01*
X8541041Y30789388D01*
X8699950Y30590123D01*
X8699952Y30590121D01*
X8719088Y30572366D01*
X8754677Y30514128D01*
X8754678Y30445877D01*
X8719091Y30387638D01*
X8699950Y30369878D01*
X8541039Y30170609D01*
X8413607Y29949889D01*
X8320492Y29712638D01*
X8316832Y29696600D01*
X8263778Y29464157D01*
X8244732Y29210000D01*
X8263778Y28955843D01*
X8320492Y28707363D01*
X8413607Y28470112D01*
X8541041Y28249388D01*
X8699950Y28050123D01*
X8699952Y28050121D01*
X8719088Y28032366D01*
X8754677Y27974128D01*
X8754678Y27905877D01*
X8719091Y27847638D01*
X8699950Y27829878D01*
X8541039Y27630609D01*
X8413607Y27409889D01*
X8413607Y27409888D01*
X8320492Y27172637D01*
X8263778Y26924157D01*
X8244732Y26670000D01*
X8263778Y26415843D01*
X8320492Y26167363D01*
X8413607Y25930112D01*
X8541041Y25709388D01*
X8699950Y25510123D01*
X8699952Y25510121D01*
X8699953Y25510120D01*
X8719089Y25492363D01*
X8754677Y25434125D01*
X8754677Y25365875D01*
X8719089Y25307637D01*
X8699953Y25289881D01*
X8541039Y25090609D01*
X8413607Y24869889D01*
X8320492Y24632638D01*
X8265694Y24392550D01*
X8263778Y24384157D01*
X8244732Y24130000D01*
X8263778Y23875843D01*
X8320492Y23627363D01*
X8413607Y23390112D01*
X8541041Y23169388D01*
X8699950Y22970123D01*
X8699952Y22970121D01*
X8699953Y22970120D01*
X8719089Y22952363D01*
X8754677Y22894125D01*
X8754677Y22825875D01*
X8719089Y22767637D01*
X8699953Y22749881D01*
X8541039Y22550609D01*
X8413607Y22329889D01*
X8320492Y22092638D01*
X8263778Y21844159D01*
X8244732Y21590001D01*
X8263778Y21335842D01*
X8306780Y21147439D01*
X8320492Y21087363D01*
X8413607Y20850112D01*
X8541041Y20629388D01*
X8699950Y20430123D01*
X8699952Y20430121D01*
X8699953Y20430120D01*
X8719089Y20412363D01*
X8754677Y20354125D01*
X8754677Y20285875D01*
X8719089Y20227637D01*
X8699953Y20209881D01*
X8541039Y20010609D01*
X8413607Y19789889D01*
X8413607Y19789888D01*
X8320492Y19552637D01*
X8263778Y19304157D01*
X8244732Y19050000D01*
X8263778Y18795843D01*
X8320492Y18547363D01*
X8413607Y18310112D01*
X8541041Y18089388D01*
X8699950Y17890123D01*
X8699952Y17890121D01*
X8699953Y17890120D01*
X8719089Y17872363D01*
X8754677Y17814125D01*
X8754677Y17745875D01*
X8719089Y17687637D01*
X8699953Y17669881D01*
X8541039Y17470609D01*
X8413607Y17249889D01*
X8320492Y17012638D01*
X8263778Y16764159D01*
X8244732Y16510001D01*
X8263778Y16255842D01*
X8314448Y16033843D01*
X8320492Y16007363D01*
X8413607Y15770112D01*
X8541041Y15549388D01*
X8699950Y15350123D01*
X8886783Y15176768D01*
X9097366Y15033195D01*
X9216410Y14975866D01*
X9326995Y14922611D01*
X9396901Y14901049D01*
X9570542Y14847487D01*
X9822565Y14809500D01*
X10077433Y14809500D01*
X10077435Y14809500D01*
X10329458Y14847487D01*
X10573004Y14922611D01*
X10802634Y15033195D01*
X11013217Y15176768D01*
X11200050Y15350123D01*
X11358959Y15549388D01*
X11486393Y15770112D01*
X11518369Y15851587D01*
X11554364Y15901816D01*
X11609920Y15928892D01*
X11671667Y15926292D01*
X11724751Y15894643D01*
X20923799Y6695595D01*
X20954537Y6645436D01*
X20959153Y6586789D01*
X20936640Y6532439D01*
X20891907Y6494233D01*
X20834704Y6480500D01*
X13572178Y6480500D01*
X13535039Y6486098D01*
X13501200Y6502394D01*
X13357704Y6600228D01*
X13357703Y6600229D01*
X13357701Y6600230D01*
X13121323Y6714064D01*
X12870612Y6791397D01*
X12768658Y6806765D01*
X12730656Y6818877D01*
X12698344Y6842262D01*
X7567405Y11973201D01*
X7540091Y12014078D01*
X7530500Y12062296D01*
X7530500Y46990000D01*
X8244732Y46990000D01*
X8263778Y46735843D01*
X8320492Y46487363D01*
X8413607Y46250112D01*
X8541041Y46029388D01*
X8699950Y45830123D01*
X8886783Y45656768D01*
X8955561Y45609876D01*
X9010981Y45572091D01*
X9048527Y45532002D01*
X9065452Y45479749D01*
X9058537Y45425260D01*
X9029098Y45378890D01*
X8944187Y45293979D01*
X8812912Y45106499D01*
X8716186Y44899071D01*
X8663917Y44704000D01*
X11236082Y44704000D01*
X11183813Y44899071D01*
X11087087Y45106499D01*
X10955810Y45293982D01*
X10870902Y45378890D01*
X10841462Y45425260D01*
X10834547Y45479749D01*
X10851472Y45532003D01*
X10889019Y45572091D01*
X11013213Y45656765D01*
X11013214Y45656767D01*
X11013217Y45656768D01*
X11200050Y45830123D01*
X11358959Y46029388D01*
X11486393Y46250112D01*
X11579508Y46487363D01*
X11636222Y46735843D01*
X11655268Y46990000D01*
X11636222Y47244157D01*
X11579508Y47492637D01*
X11486393Y47729888D01*
X11358959Y47950612D01*
X11200050Y48149877D01*
X11180908Y48167638D01*
X11145321Y48225874D01*
X11145321Y48294126D01*
X11180908Y48352363D01*
X11200050Y48370123D01*
X11358959Y48569388D01*
X11486393Y48790112D01*
X11579508Y49027363D01*
X11636222Y49275843D01*
X11655268Y49530000D01*
X11636222Y49784157D01*
X11579508Y50032637D01*
X11486393Y50269888D01*
X11367999Y50474954D01*
X11351291Y50531365D01*
X11362019Y50589214D01*
X11383961Y50617801D01*
X11381923Y50619451D01*
X11509384Y50776852D01*
X11544634Y50846036D01*
X11595320Y50945512D01*
X11644312Y51128355D01*
X11650500Y51206979D01*
X11650499Y52933020D01*
X11644312Y53011645D01*
X11595320Y53194488D01*
X11532297Y53318178D01*
X11509384Y53363149D01*
X11442427Y53445833D01*
X11390257Y53510257D01*
X11330693Y53558492D01*
X11243148Y53629385D01*
X11074490Y53715319D01*
X11074489Y53715320D01*
X11074488Y53715320D01*
X10891645Y53764312D01*
X10813021Y53770500D01*
X10813015Y53770500D01*
X9086984Y53770500D01*
X9008354Y53764312D01*
X8902791Y53736027D01*
X8825512Y53715320D01*
X8825511Y53715320D01*
X8825509Y53715319D01*
X8656851Y53629385D01*
X8509743Y53510257D01*
X8390615Y53363149D01*
X8304681Y53194491D01*
X8255688Y53011646D01*
X8249500Y52933016D01*
X8249500Y51206985D01*
X8252290Y51171535D01*
X8255688Y51128355D01*
X8296398Y50976420D01*
X8304681Y50945510D01*
X8390615Y50776852D01*
X8518077Y50619452D01*
X8516039Y50617803D01*
X8537986Y50589202D01*
X8548707Y50531359D01*
X8532000Y50474953D01*
X8413606Y50269887D01*
X8320492Y50032638D01*
X8287995Y49890257D01*
X8263778Y49784157D01*
X8244732Y49530000D01*
X8263778Y49275843D01*
X8320492Y49027363D01*
X8413607Y48790112D01*
X8541041Y48569388D01*
X8699950Y48370123D01*
X8699952Y48370121D01*
X8699953Y48370120D01*
X8719089Y48352363D01*
X8754677Y48294125D01*
X8754677Y48225875D01*
X8719089Y48167637D01*
X8699953Y48149881D01*
X8541039Y47950609D01*
X8413607Y47729889D01*
X8320492Y47492638D01*
X8270701Y47274488D01*
X8263778Y47244157D01*
X8244732Y46990000D01*
X7530500Y46990000D01*
X7530500Y64604913D01*
X7544852Y64663315D01*
X7584639Y64708412D01*
X7640796Y64729931D01*
X7700531Y64722969D01*
X7725904Y64713506D01*
X7786411Y64707000D01*
X8431000Y64707000D01*
X8431000Y66193000D01*
X8447881Y66256000D01*
X8494000Y66302119D01*
X8557000Y66319000D01*
X8813000Y66319000D01*
X8876000Y66302119D01*
G37*
%TD.AperFunction*%
%TD*%
%TA.AperFunction,NonConductor*%
G36*
X5557998Y73983759D02*
G01*
X5603744Y73940469D01*
X5622823Y73880447D01*
X5610469Y73818689D01*
X5569767Y73770626D01*
X5544518Y73752770D01*
X5542325Y73751253D01*
X5456993Y73693577D01*
X5452961Y73689712D01*
X5438546Y73677817D01*
X5433983Y73674590D01*
X5361172Y73601780D01*
X5359263Y73599911D01*
X5284877Y73528618D01*
X5281551Y73524120D01*
X5269349Y73509957D01*
X215595Y68456202D01*
X165436Y68425464D01*
X106789Y68420848D01*
X52439Y68443361D01*
X14233Y68488094D01*
X500Y68545297D01*
X500Y73873500D01*
X17381Y73936500D01*
X63500Y73982619D01*
X126500Y73999500D01*
X5497015Y73999500D01*
X5557998Y73983759D01*
G37*
%TD.AperFunction*%
%TA.AperFunction,NonConductor*%
G36*
X18805922Y69189909D02*
G01*
X18846799Y69162595D01*
X20350332Y67659062D01*
X20379772Y67612693D01*
X20386687Y67558204D01*
X20369763Y67505951D01*
X20332217Y67465862D01*
X20290520Y67437433D01*
X20200701Y67354094D01*
X20146091Y67324355D01*
X20083909Y67324355D01*
X20029299Y67354094D01*
X19939479Y67437434D01*
X19722704Y67585228D01*
X19486323Y67699064D01*
X19235618Y67776395D01*
X19235615Y67776396D01*
X18976182Y67815500D01*
X18713818Y67815500D01*
X18454385Y67776396D01*
X18454382Y67776396D01*
X18454381Y67776395D01*
X18203676Y67699064D01*
X17967295Y67585228D01*
X17750520Y67437434D01*
X17660701Y67354094D01*
X17606091Y67324355D01*
X17543909Y67324355D01*
X17489299Y67354094D01*
X17399479Y67437434D01*
X17182704Y67585228D01*
X16946323Y67699064D01*
X16695618Y67776395D01*
X16695615Y67776396D01*
X16436182Y67815500D01*
X16173818Y67815500D01*
X15914385Y67776396D01*
X15914382Y67776396D01*
X15914381Y67776395D01*
X15663676Y67699064D01*
X15427295Y67585228D01*
X15210520Y67437434D01*
X15120701Y67354094D01*
X15066091Y67324355D01*
X15003909Y67324355D01*
X14949299Y67354094D01*
X14859479Y67437434D01*
X14642704Y67585228D01*
X14406323Y67699064D01*
X14155618Y67776395D01*
X14155615Y67776396D01*
X13896182Y67815500D01*
X13633818Y67815500D01*
X13374385Y67776396D01*
X13374382Y67776396D01*
X13374381Y67776395D01*
X13123676Y67699064D01*
X12887295Y67585228D01*
X12783055Y67514159D01*
X12727796Y67493249D01*
X12669082Y67499828D01*
X12619821Y67532447D01*
X12590844Y67583935D01*
X12590478Y67585228D01*
X12576907Y67633151D01*
X12576253Y67635557D01*
X12550275Y67735330D01*
X12547975Y67740417D01*
X12541559Y67757983D01*
X12540038Y67763353D01*
X12533806Y67776395D01*
X12495587Y67856378D01*
X12494528Y67858655D01*
X12452077Y67952567D01*
X12452073Y67952573D01*
X12448954Y67957188D01*
X12439656Y67973425D01*
X12437251Y67978459D01*
X12377762Y68062571D01*
X12376241Y68064770D01*
X12354403Y68097080D01*
X12318579Y68150084D01*
X12314713Y68154118D01*
X12302809Y68168545D01*
X12299590Y68173097D01*
X12226756Y68245931D01*
X12224931Y68247795D01*
X12153619Y68322201D01*
X12149122Y68325527D01*
X12134953Y68337734D01*
X11488282Y68984405D01*
X11457544Y69034564D01*
X11452928Y69093211D01*
X11475441Y69147561D01*
X11520174Y69185767D01*
X11577377Y69199500D01*
X18757704Y69199500D01*
X18805922Y69189909D01*
G37*
%TD.AperFunction*%
%TA.AperFunction,NonConductor*%
G36*
X35936500Y73982619D02*
G01*
X35982619Y73936500D01*
X35999500Y73873500D01*
X35999500Y58772984D01*
X35983760Y58712002D01*
X35940472Y58666256D01*
X35880451Y58647176D01*
X35818693Y58659528D01*
X35770629Y58700227D01*
X35752762Y58725489D01*
X35751241Y58727689D01*
X35693579Y58813003D01*
X35689713Y58817037D01*
X35677809Y58831464D01*
X35674590Y58836016D01*
X35601756Y58908850D01*
X35599931Y58910714D01*
X35528619Y58985120D01*
X35524122Y58988446D01*
X35509953Y59000653D01*
X28231446Y66279160D01*
X28197701Y66340217D01*
X28142420Y66582416D01*
X28046568Y66826643D01*
X27915386Y67053857D01*
X27751805Y67258981D01*
X27559479Y67437433D01*
X27559476Y67437435D01*
X27559474Y67437437D01*
X27342704Y67585228D01*
X27106323Y67699064D01*
X26855612Y67776397D01*
X26753658Y67791765D01*
X26715656Y67803877D01*
X26683344Y67827262D01*
X20954692Y73555914D01*
X20949202Y73561764D01*
X20915628Y73599911D01*
X20902564Y73614755D01*
X20822374Y73679504D01*
X20820389Y73681143D01*
X20805641Y73693577D01*
X20741621Y73747554D01*
X20741622Y73747554D01*
X20741619Y73747556D01*
X20736808Y73750379D01*
X20721423Y73761016D01*
X20708736Y73771260D01*
X20709711Y73772469D01*
X20671962Y73809268D01*
X20654366Y73872430D01*
X20670887Y73935881D01*
X20717052Y73982440D01*
X20780361Y73999500D01*
X35873500Y73999500D01*
X35936500Y73982619D01*
G37*
%TD.AperFunction*%
%TA.AperFunction,NonConductor*%
G36*
X33147561Y40116640D02*
G01*
X33185767Y40071907D01*
X33199500Y40014704D01*
X33199500Y22752297D01*
X33189909Y22704079D01*
X33162595Y22663202D01*
X27097441Y16598050D01*
X27035234Y16564047D01*
X26964514Y16569015D01*
X26907670Y16611379D01*
X26882698Y16677728D01*
X26876222Y16764157D01*
X26819508Y17012637D01*
X26726393Y17249888D01*
X26598959Y17470612D01*
X26440050Y17669877D01*
X26420908Y17687638D01*
X26385321Y17745874D01*
X26385321Y17814126D01*
X26420908Y17872363D01*
X26440050Y17890123D01*
X26598959Y18089388D01*
X26726393Y18310112D01*
X26819508Y18547363D01*
X26876222Y18795843D01*
X26895268Y19050000D01*
X26876222Y19304157D01*
X26819508Y19552637D01*
X26726393Y19789888D01*
X26598959Y20010612D01*
X26440050Y20209877D01*
X26420908Y20227638D01*
X26385321Y20285874D01*
X26385321Y20354126D01*
X26420908Y20412363D01*
X26440050Y20430123D01*
X26598959Y20629388D01*
X26726393Y20850112D01*
X26819508Y21087363D01*
X26876222Y21335843D01*
X26895268Y21590000D01*
X26876222Y21844157D01*
X26819508Y22092637D01*
X26726393Y22329888D01*
X26598959Y22550612D01*
X26440050Y22749877D01*
X26420908Y22767638D01*
X26385321Y22825874D01*
X26385321Y22894126D01*
X26420908Y22952363D01*
X26440050Y22970123D01*
X26598959Y23169388D01*
X26726393Y23390112D01*
X26819508Y23627363D01*
X26876222Y23875843D01*
X26895268Y24130000D01*
X26876222Y24384157D01*
X26819508Y24632637D01*
X26726393Y24869888D01*
X26598959Y25090612D01*
X26440050Y25289877D01*
X26420908Y25307638D01*
X26385321Y25365874D01*
X26385321Y25434126D01*
X26420908Y25492363D01*
X26440050Y25510123D01*
X26598959Y25709388D01*
X26726393Y25930112D01*
X26819508Y26167363D01*
X26876222Y26415843D01*
X26895268Y26670000D01*
X26876222Y26924157D01*
X26819508Y27172637D01*
X26726393Y27409888D01*
X26598959Y27630612D01*
X26440050Y27829877D01*
X26420909Y27847637D01*
X26385321Y27905876D01*
X26385322Y27974129D01*
X26420910Y28032365D01*
X26440050Y28050123D01*
X26598959Y28249388D01*
X26726393Y28470112D01*
X26819508Y28707363D01*
X26876222Y28955843D01*
X26895268Y29210000D01*
X26876222Y29464157D01*
X26819508Y29712637D01*
X26726393Y29949888D01*
X26598959Y30170612D01*
X26440050Y30369877D01*
X26420908Y30387638D01*
X26385321Y30445874D01*
X26385321Y30514126D01*
X26420908Y30572363D01*
X26440050Y30590123D01*
X26598959Y30789388D01*
X26726393Y31010112D01*
X26819508Y31247363D01*
X26876222Y31495843D01*
X26895268Y31750000D01*
X26876222Y32004157D01*
X26819508Y32252637D01*
X26726393Y32489888D01*
X26598959Y32710612D01*
X26440050Y32909877D01*
X26420908Y32927638D01*
X26385321Y32985874D01*
X26385321Y33054126D01*
X26420908Y33112363D01*
X26440050Y33130123D01*
X26598959Y33329388D01*
X26726393Y33550112D01*
X26819508Y33787363D01*
X26856248Y33948334D01*
X26889991Y34009387D01*
X32984404Y40103799D01*
X33034564Y40134537D01*
X33093211Y40139153D01*
X33147561Y40116640D01*
G37*
%TD.AperFunction*%
%TA.AperFunction,NonConductor*%
G36*
X5157471Y10400499D02*
G01*
X5191084Y10379005D01*
X5192754Y10381261D01*
X5201377Y10374884D01*
X5201379Y10374882D01*
X5205874Y10371558D01*
X5220044Y10359350D01*
X9185988Y6393406D01*
X9219843Y6331865D01*
X9215491Y6261761D01*
X9174284Y6204880D01*
X9008861Y6076125D01*
X9007688Y6077632D01*
X8977332Y6056367D01*
X8924310Y6046717D01*
X8872107Y6060104D01*
X8830274Y6094076D01*
X8686805Y6273981D01*
X8494479Y6452433D01*
X8494476Y6452435D01*
X8494474Y6452437D01*
X8277704Y6600228D01*
X8041323Y6714064D01*
X7790618Y6791395D01*
X7790615Y6791396D01*
X7531182Y6830500D01*
X7268818Y6830500D01*
X7009385Y6791396D01*
X7009382Y6791396D01*
X7009381Y6791395D01*
X6758676Y6714064D01*
X6522293Y6600227D01*
X6486236Y6575644D01*
X6436829Y6555611D01*
X6383559Y6557804D01*
X6335965Y6581831D01*
X6203148Y6689385D01*
X6034490Y6775319D01*
X6034489Y6775320D01*
X6034488Y6775320D01*
X5851645Y6824312D01*
X5773021Y6830500D01*
X5773016Y6830500D01*
X5142296Y6830500D01*
X5094078Y6840091D01*
X5053201Y6867405D01*
X5027405Y6893201D01*
X5000091Y6934078D01*
X4990500Y6982296D01*
X4990500Y10281346D01*
X5004478Y10339026D01*
X5043310Y10383909D01*
X5098380Y10406036D01*
X5157471Y10400499D01*
G37*
%TD.AperFunction*%
%TA.AperFunction,NonConductor*%
G36*
X2617471Y5320499D02*
G01*
X2651084Y5299005D01*
X2652754Y5301261D01*
X2661377Y5294884D01*
X2661379Y5294882D01*
X2665874Y5291558D01*
X2680044Y5279350D01*
X3072595Y4886799D01*
X3099909Y4845922D01*
X3109500Y4797704D01*
X3109500Y4166985D01*
X3113726Y4113284D01*
X3115688Y4088355D01*
X3162340Y3914244D01*
X3164681Y3905510D01*
X3250615Y3736852D01*
X3308180Y3665767D01*
X3369743Y3589743D01*
X3443296Y3530181D01*
X3516851Y3470616D01*
X3631473Y3412215D01*
X3685512Y3384680D01*
X3868355Y3335688D01*
X3946979Y3329500D01*
X4634704Y3329501D01*
X4691906Y3315768D01*
X4736639Y3277562D01*
X4759152Y3223212D01*
X4754536Y3164565D01*
X4723799Y3114406D01*
X4316799Y2707405D01*
X4275921Y2680091D01*
X4227703Y2670500D01*
X2952296Y2670500D01*
X2904078Y2680091D01*
X2863201Y2707405D01*
X2487405Y3083201D01*
X2460091Y3124078D01*
X2450500Y3172296D01*
X2450500Y5201346D01*
X2464478Y5259026D01*
X2503310Y5303909D01*
X2558380Y5326036D01*
X2617471Y5320499D01*
G37*
%TD.AperFunction*%
%TA.AperFunction,NonConductor*%
G36*
X165436Y1424537D02*
G01*
X215595Y1393799D01*
X1295306Y314088D01*
X1300795Y308238D01*
X1347430Y255251D01*
X1347432Y255249D01*
X1347436Y255245D01*
X1385474Y224531D01*
X1422416Y175458D01*
X1431768Y114749D01*
X1411305Y56832D01*
X1365890Y15473D01*
X1306317Y500D01*
X126500Y500D01*
X63500Y17381D01*
X17381Y63500D01*
X500Y126500D01*
X500Y1304704D01*
X14233Y1361907D01*
X52439Y1406640D01*
X106789Y1429153D01*
X165436Y1424537D01*
G37*
%TD.AperFunction*%
M02*
